…
\#Checking if this is dependent on destination

``` r
destinational = flights %>% 
  mutate(time = dep_time) %>% 
  separate(time, into = c("dep_hour", "dep_min"), sep = -2) %>% 
  filter(dep_hour == 4 | dep_hour == 3 | dep_hour == 2) %>% 
  group_by(dest) %>% 
  summarise(n = n()) %>%
  arrange(desc(n))

destinational
```

    ## # A tibble: 25 × 2
    ##    dest      n
    ##    <chr> <int>
    ##  1 CLT     303
    ##  2 BQN      12
    ##  3 BOS       8
    ##  4 PSE       7
    ##  5 SJU       7
    ##  6 BUF       4
    ##  7 FLL       4
    ##  8 LAX       4
    ##  9 TPA       4
    ## 10 CAK       3
    ## # … with 15 more rows
…
\#Checking if this is dependent on flight distance

``` r
distance = flights %>% 
  mutate(time = dep_time) %>% 
  separate(time, into = c("dep_hour", "dep_min"), sep = -2) %>% 
  filter(dep_hour == 4 | dep_hour == 3 | dep_hour == 2) %>% 
  group_by(distance) %>% 
  summarise(n = n()) %>%
  arrange(desc(n))

distance
```

    ## # A tibble: 29 × 2
    ##    distance     n
    ##       <dbl> <int>
    ##  1      529   303
    ##  2     1576    12
    ##  3      187     8
    ##  4     1598     7
    ##  5     1617     7
    ##  6      301     4
    ##  7      209     3
    ##  8      397     3
    ##  9     1005     3
    ## 10     2475     3
    ## # … with 19 more rows
…
